Assignment 2
…
This graph shows the median age in Suffolk County, where the average age and median age are fairly similar at age 33, and the interquartile range between 29.5 and 36.9.

Categorical Variable Proportions

unique(Suffolk_tracts$majority_race_eth)

## [1] "nh_white" "hispanic" "None"     "nh_asian" "nh_black"

unique(Suffolk_tracts)

## # A tibble: 197 x 8
##    GEOID  urban majority_race_e~ pct_whiteown pct_own pct_female tot_pop med_age
##    <chr>  <lgl> <chr>                   <dbl>   <dbl>      <dbl>   <dbl>   <dbl>
##  1 25025~ TRUE  nh_white                0.735   0.239      0.470    4254    29.3
##  2 25025~ TRUE  nh_white                0.828   0.276      0.506    3854    28.3
##  3 25025~ TRUE  nh_white                0.800   0.311      0.495    3885    29.5
##  4 25025~ TRUE  nh_white                0.853   0.390      0.491    2740    31.4
##  5 25025~ TRUE  nh_white                0.808   0.469      0.501    3142    29.4
##  6 25025~ TRUE  nh_white                0.720   0.167      0.518    5672    28.9
##  7 25025~ TRUE  nh_white                0.725   0.311      0.479    3648    26.7
##  8 25025~ TRUE  nh_white                0.858   0.176      0.542    6303    22.2
##  9 25025~ TRUE  nh_white                0.807   0.247      0.535    2211    28.1
## 10 25025~ TRUE  nh_white                0.793   0.190      0.572    4985    27.5
## # ... with 187 more rows
…
